…
    ## The following objects are masked from 'package:stats':
    ## 
    ##     filter, lag

    ## The following objects are masked from 'package:base':
    ## 
    ##     intersect, setdiff, setequal, union

``` r
df = Connections %>% group_by(Company) %>% count(Company) %>% arrange(-n)

df
```

    ## # A tibble: 599 × 2
    ## # Groups:   Company [599]
    ##    Company                                                 n
    ##    <chr>                                               <int>
    ##  1 IBM                                                   190
    ##  2 Saputo Inc.                                            25
    ##  3 <NA>                                                   16
    ##  4 Université de Sherbrooke                               14
    ##  5 Accenture                                              11
    ##  6 CGI                                                     9
    ##  7 Greenfield Global                                       9
    ##  8 McGill University - Desautels Faculty of Management     9
    ##  9 McKinsey & Company                                      9
    ## 10 Agnico Eagle Mines Limited                              8
    ## # … with 589 more rows
…
